<?xml version="1.0" encoding="utf-8"?>
<!-- Generator: Adobe Illustrator 22.1.0, SVG Export Plug-In . SVG Version: 6.00 Build 0)  -->
<svg version="1.1" id="Capa_1" xmlns="http://www.w3.org/2000/svg" xmlns:xlink="http://www.w3.org/1999/xlink" x="0px" y="0px"
	 viewBox="0 0 146 213" style="enable-background:new 0 0 146 213;" xml:space="preserve">
<style type="text/css">
	.st0{fill:#FFFFFF;}
</style>
<g>
	<path class="st0" d="M79.1,68.4V213h18.7l6.9-144.6H79.1z M79.1,68.4"/>
	<path class="st0" d="M66.7,68.4H41.1L48,213h18.7V68.4z M66.7,68.4"/>
	<path class="st0" d="M117.2,68.4L110.3,213h18.6l13.9-144.6H117.2z M117.2,68.4"/>
	<path class="st0" d="M35.5,213L28.6,68.4H3L16.9,213H35.5z M35.5,213"/>
	<path class="st0" d="M144.5,47.8c-1.5-3.7-4.6-6.6-8.5-7.9l-4.6-1.5l0.3-4.8c0.3-4-1.2-8-4.1-10.9c-2.9-2.9-6.8-4.3-10.9-4.1
		L112,19l-1.5-4.6c-1.3-3.8-4.2-6.9-7.9-8.5c-3.7-1.5-8-1.4-11.6,0.4l-4.3,2.1l-3.2-3.6C80.8,1.8,76.9,0,72.9,0
		c-4,0-7.9,1.8-10.6,4.8l-3.2,3.6l-4.3-2.1c-3.6-1.8-7.9-2-11.6-0.4c-3.7,1.5-6.6,4.6-7.9,8.5L33.8,19L29,18.6
		c-4-0.3-8,1.2-10.9,4.1c-2.9,2.9-4.3,6.8-4.1,10.9l0.3,4.8l-4.6,1.5c-3.8,1.3-6.9,4.2-8.5,7.9c-1.1,2.6-1.3,5.4-0.8,8.1h144.7
		C145.8,53.2,145.5,50.4,144.5,47.8L144.5,47.8z M144.5,47.8"/>
</g>
</svg>
