<?xml version="1.0" encoding="utf-8"?>
<!-- Generator: Adobe Illustrator 22.1.0, SVG Export Plug-In . SVG Version: 6.00 Build 0)  -->
<svg version="1.1" id="Capa_1" xmlns="http://www.w3.org/2000/svg" xmlns:xlink="http://www.w3.org/1999/xlink" x="0px" y="0px"
	 viewBox="0 0 354 354" style="enable-background:new 0 0 354 354;" xml:space="preserve">
<style type="text/css">
	.st0{fill:#C59018;}
</style>
<path class="st0" d="M323.5,13.6H199.5c-41.1,0-76,16.2-98.3,45.7l-0.6,0.8l6.7-12.7c0.5-1,0.8-2.1,0.8-3.2C108.2,19,87.9,0,61,0
	H30.7c-3.8,0-6.8,3-6.8,6.8v161.5c0,9.3,2.5,17.6,6.9,24.1c1,21.7,18.8,39,40.8,39c3.8,0,6.8-3,6.8-6.8v-3.7
	c6.1,5.5,13.8,9.1,22.1,10.1c-9.3,2-18.3,5-27.1,8.9l-9.6,4.3c-16.5,7.4-33.1,24.6-33.1,46.4v56.5c0,3.8,3,6.8,6.8,6.8h209.9
	c37.6,0,70.2-28,79.8-64.8c0.1-0.3,0.1-0.6,0.2-0.9c0.8-3,1.3-6,1.8-9.1c0.1-0.6,0.2-1.3,0.3-1.9c0.4-3.4,0.7-6.8,0.7-10.3V20.4
	C330.3,16.7,327.2,13.6,323.5,13.6z M316.6,258.7h-23.8c-9.4,0-17,7.6-17,17c0,9.4,7.6,17,17,17h19c-0.9,2.3-1.8,4.6-2.9,6.8h-26.4
	c-13.1,0-23.8-10.7-23.8-23.8c0-13.1,10.7-23.8,23.8-23.8h34V258.7z M316.1,275.8c-0.1,1.1-0.4,2.2-0.6,3.3h-22.7
	c-1.9,0-3.4-1.5-3.4-3.4c0-1.9,1.5-3.4,3.4-3.4h23.5c-0.1,0.9-0.1,1.8-0.2,2.8C316.1,275.3,316.1,275.6,316.1,275.8z M292.8,177
	c-9.4,0-17,7.6-17,17c0,9.4,7.6,17,17,17h23.8v6.8h-34c-13.1,0-23.8-10.7-23.8-23.8c0-13.1,10.7-23.8,23.8-23.8h34v6.8H292.8z
	 M316.6,190.6v6.8h-23.8c-1.9,0-3.4-1.5-3.4-3.4c0-1.9,1.5-3.4,3.4-3.4H316.6z M316.6,104.4l-36.9,28.4c-5.8,4.5-14.2,3.9-19.3-1.2
	c-5.4-5.4-5.8-13.9-0.9-19.8l14.6-17.5c6.2-7.4,5.7-18.2-1.1-25.1c-5.7-5.7-14.3-7.1-21.5-3.5l-17.5,8.7c-6.2,3.1-13.7,1.3-17.8-4.2
	c-3.9-5.2-3.8-12.4,0.3-17.6l20.6-25.5h79.6V104.4z M219.6,27.2l-13.7,17c-2.9,3.6-4.7,7.7-5.6,11.9c-8.7-12.1-24.2-20.6-42.3-21.9
	c12.6-4.5,26.5-7,41.4-7H219.6z M174.8,104.2c-4.6-11.2-15.5-19.1-28.3-19.1c-10.1,0-19.1,5-24.6,12.6c-6-5.5-9.4-12.3-9.4-19.4
	c0-16.9,18.3-30.6,40.8-30.6s40.8,13.7,40.8,30.6C194.1,88.8,186.6,98.6,174.8,104.2z M146.5,98.7c9.4,0,17,7.6,17,17s-7.6,17-17,17
	c-9.4,0-17-7.6-17-17S137.1,98.7,146.5,98.7z M61,13.6c18.9,0,32.7,12.1,33.5,29l-34.8,65.3c-2.2,4.1-0.9,9,3,11.5
	c3.9,2.5,8.9,1.6,11.7-2.1l24.9-33c1.6,9.8,7.2,18.8,16,25.7l-42,27.2c-10.8,7-23.1,10.7-35.9,11.2v-46.9c19.3-3,34-18.4,34-36.9
	c0-18.5-14.8-33.9-34-36.9V13.6H61z M37.5,41.7C49.2,44.4,58,53.6,58,64.7c0,11.1-8.7,20.3-20.4,23V41.7z M49.3,206.2
	c3.2,0.9,6.5,1.5,10.1,1.5h5.3v9.3C58.4,215.3,53,211.4,49.3,206.2z M84.6,207.6h4c3.4,0,6.8,0.2,10.3,0.4v8.9
	C93.2,215.5,88.3,212.1,84.6,207.6z M112.4,224.7v-14.8c4.2,0.8,8.4,1.7,12.6,2.9l19.9,5.7c2.1,0.6,3.5,2.5,3.5,4.7
	c0,2.7-2.1,4.8-4.7,4.8h-14.8c-6.2,0-12.4,0.6-18.5,1.4C111.7,228.2,112.4,226.5,112.4,224.7z M247.5,340.4H44.3v-33.7l22.9-16.6
	c22.1-16.1,48.2-24.6,75.6-24.6h3.7c22.5,0,40.8-18.3,40.8-40.8s-18.3-40.8-40.8-40.8c-8.5,0-16-5.5-18.5-13.6h11.7
	c3.8,0,6.8-3,6.8-6.8c0-3.8-3-6.8-6.8-6.8h-20.4c-2.1,0-4.1,1-5.4,2.6c-1.3,1.6-1.7,3.8-1.2,5.8l1.9,7.4c3.7,14.7,16.8,25,32,25
	c15,0,27.2,12.2,27.2,27.2c0,15-12.2,27.2-27.2,27.2h-3.7c-30.2,0-59.1,9.4-83.6,27.2l-14.8,10.8c0.4-13.1,10.5-26.6,25-33.1
	l9.6-4.3c15.8-7.1,32.6-10.7,49.9-10.7h14.8c10.1,0,18.3-8.3,18.3-18.4c0-8.2-5.5-15.5-13.4-17.8l-19.9-5.8
	c-7.5-2.2-15.2-3.6-22.9-4.6c-0.1,0-0.2-0.1-0.2-0.1c0,0-0.1,0-0.1,0c-5.6-0.7-11.3-1.1-17-1.1H59.4c-15.1,0-21.9-12.9-21.9-25.7
	v-6.2c15.4-0.4,30.3-5,43.3-13.4l36.6-23.7c4,12.3,15.4,21.4,29,21.4c16,0,29.1-12.4,30.4-28.2c17.8-6.9,29.5-21.3,30.6-37.3
	c8.4,8.8,21.6,11.4,32.7,5.8l17.5-8.7c1.9-0.9,4.2-0.6,5.8,0.9c1.8,1.8,2,4.7,0.3,6.7l-14.6,17.5c-9.4,11.3-8.7,27.7,1.7,38.1
	c5.5,5.5,12.7,8.3,20,8.3c6.1,0,12.2-1.9,17.3-5.9l28.5-22v34.9h-34c-20.6,0-37.4,16.8-37.4,37.4c0,20.6,16.8,37.4,37.4,37.4h34v6.8
	h-34c-20.6,0-37.4,16.8-37.4,37.4s16.8,37.4,37.4,37.4h18.1C287.9,329.7,268.6,340.4,247.5,340.4z"/>
<path class="st0" d="M166.9,163.4c-3.8,0-6.8,3-6.8,6.8c0,3.8,3,6.8,6.8,6.8c18.8,0,34,15.3,34,34v16.1c0,13.8-5.9,27-16.1,36.3
	l-3.2,2.9c-9,8.2-20.8,12.8-33,12.8h-29.5c-3.8,0-6.8,3-6.8,6.8c0,3.8,3,6.8,6.8,6.8h29.5c15.6,0,30.6-5.8,42.2-16.3l3.2-2.9
	c13-11.8,20.5-28.8,20.5-46.4V211C214.5,184.8,193.2,163.4,166.9,163.4z"/>
</svg>
