<?xml version="1.0" encoding="utf-8"?>
<!-- Generator: Adobe Illustrator 22.1.0, SVG Export Plug-In . SVG Version: 6.00 Build 0)  -->
<svg version="1.1" id="Capa_1" xmlns="http://www.w3.org/2000/svg" xmlns:xlink="http://www.w3.org/1999/xlink" x="0px" y="0px"
	 viewBox="0 0 682.7 682.7" style="enable-background:new 0 0 682.7 682.7;" xml:space="preserve">
<style type="text/css">
	.st0{fill:#C59018;}
</style>
<path class="st0" d="M639.7,575.7H629V533c0-11.8-9.6-21.3-21.3-21.3V469c0-11.8-9.6-21.3-21.3-21.3h-10.7V405
	c0-11.8-9.6-21.3-21.3-21.3h-10.7V341c0-11.8-9.5-21.3-21.3-21.3h-10.7V277c0-11.8-9.6-21.3-21.3-21.3h-10.7V149
	c0-11.8-9.6-21.3-21.3-21.3V85c0-11.8-9.6-21.3-21.3-21.3h-1.1C430.8,38.9,409,21,383.7,21h-85.3c-25.3,0-47.2,17.9-52.3,42.7H245
	c-11.8,0-21.3,9.6-21.3,21.3v42.7c-11.8,0-21.3,9.6-21.3,21.3v106.7h-10.7c-11.8,0-21.3,9.6-21.3,21.3v42.7h-10.7
	c-11.8,0-21.3,9.6-21.3,21.3v42.7h-10.7c-11.8,0-21.3,9.6-21.3,21.3v42.7H95.7c-11.8,0-21.3,9.6-21.3,21.3v42.7
	c-11.8,0-21.3,9.6-21.3,21.3v42.7H42.3c-11.8,0-21.3,9.6-21.3,21.3v42.7c0,11.8,9.6,21.3,21.3,21.3h597.3c11.8,0,21.3-9.6,21.3-21.3
	V597C661,585.2,651.4,575.7,639.7,575.7z M428.2,533h179.4v42.7H431.4L428.2,533z M586.3,511.7H426.6l-3.2-42.7h162.9V511.7z
	 M554.3,447.7H421.8l-3.2-42.7h135.7V447.7z M522.3,383.7H417l-3.2-42.7h108.5V383.7z M490.3,319.7h-78.1L409,277h81.3V319.7z
	 M407.4,255.7l-1.6-21.3h52.5v21.3H407.4z M298.3,42.3h85.3c13.6,0,25.6,8.6,30.2,21.3H268.2C272.7,50.9,284.8,42.3,298.3,42.3z
	 M245,85h192v42.7H245V85z M223.7,149h234.7v64h-74.7v-21.3c0-11.8-9.5-21.3-21.3-21.3h-42.7c-11.8,0-21.3,9.6-21.3,21.3V213h-74.7
	V149z M362.3,213h-42.7v-21.3h42.7V213z M223.7,234.3h52.5l-1.6,21.3h-50.9V234.3z M191.7,277H273l-3.2,42.7h-78.1V277z M159.7,341
	h108.5l-3.2,42.7H159.7V341z M127.7,405h135.7l-3.2,42.7H127.7V405z M95.7,469h162.9l-3.2,42.7H95.7V469z M74.3,533h179.4l-3.2,42.7
	H74.3V533z M42.3,597H249l-3.2,42.7H42.3V597z M267.2,639.7l30.4-405.3h86.9l30.4,405.3H267.2z M639.7,639.7H436.2L433,597h206.6
	V639.7z"/>
<path class="st0" d="M362.3,597h-42.7c-5.9,0-10.7,4.8-10.7,10.7c0,5.9,4.8,10.7,10.7,10.7h42.7c5.9,0,10.7-4.8,10.7-10.7
	C373,601.8,368.2,597,362.3,597z"/>
<path class="st0" d="M362.3,554.3h-42.7c-5.9,0-10.7,4.8-10.7,10.7s4.8,10.7,10.7,10.7h42.7c5.9,0,10.7-4.8,10.7-10.7
	S368.2,554.3,362.3,554.3z"/>
<path class="st0" d="M362.3,511.7h-42.7c-5.9,0-10.7,4.8-10.7,10.7c0,5.9,4.8,10.7,10.7,10.7h42.7c5.9,0,10.7-4.8,10.7-10.7
	C373,516.4,368.2,511.7,362.3,511.7z"/>
<path class="st0" d="M362.3,469h-42.7c-5.9,0-10.7,4.8-10.7,10.7c0,5.9,4.8,10.7,10.7,10.7h42.7c5.9,0,10.7-4.8,10.7-10.7
	C373,473.8,368.2,469,362.3,469z"/>
<path class="st0" d="M362.3,426.3h-42.7c-5.9,0-10.7,4.8-10.7,10.7s4.8,10.7,10.7,10.7h42.7c5.9,0,10.7-4.8,10.7-10.7
	S368.2,426.3,362.3,426.3z"/>
<path class="st0" d="M362.3,383.7h-42.7c-5.9,0-10.7,4.8-10.7,10.7c0,5.9,4.8,10.7,10.7,10.7h42.7c5.9,0,10.7-4.8,10.7-10.7
	C373,388.4,368.2,383.7,362.3,383.7z"/>
<path class="st0" d="M362.3,341h-42.7c-5.9,0-10.7,4.8-10.7,10.7c0,5.9,4.8,10.7,10.7,10.7h42.7c5.9,0,10.7-4.8,10.7-10.7
	C373,345.8,368.2,341,362.3,341z"/>
<path class="st0" d="M362.3,298.3h-42.7c-5.9,0-10.7,4.8-10.7,10.7s4.8,10.7,10.7,10.7h42.7c5.9,0,10.7-4.8,10.7-10.7
	S368.2,298.3,362.3,298.3z"/>
<path class="st0" d="M362.3,255.7h-42.7c-5.9,0-10.7,4.8-10.7,10.7c0,5.9,4.8,10.7,10.7,10.7h42.7c5.9,0,10.7-4.8,10.7-10.7
	C373,260.4,368.2,255.7,362.3,255.7z"/>
</svg>
